﻿id;oemName
0;unknown
1;Agrale
2;Aiway
3;Ashok Leyland
4;Aston Martin
5;Audi
6;AvtoZAZ
7;BAIC
8;BJEV
9;BMW
10;Bollore
11;Bordrin
12;Borgward
13;Brilliance Auto
14;BYD
15;Caterham
16;Changan
17;Changfeng
18;CH-AUTO
19;Chery
20;China First Tractor
21;China Motor
22;CHJ
23;CNH Industrial
24;CNHTC
25;CRRC
26;DAF
27;Daihatsu
28;Daimler
29;Deutsche Post DHL Group
30;Dongfeng
31;Dorcen
32;Dyson
33;e.GO
34;Eicher Motors
35;Faraday Future
36;FAW
37;FCA
38;FDG
39;Ferrari
40;FMC
41;Foday
42;FOMM
43;Force Motors
44;Ford
45;Frazer-Nash
46;Fujian Forta
47;Fujian Motor Industry
48;GAC
49;GAZ Group
50;Geely
51;GLM
52;GM
53;Great Wall
54;Green Wheel EV
55;Guilin Bus
56;Guizhou Yuantong
57;Hainan Automobile
58;Hanteng Auto
59;Hawtai
60;Hengtian
61;Hengtong Bus
62;Hero
63;Hino
64;Honda
65;Hozon EV
66;Hubei
67;Hubei Sanhuan
68;Hyundai
69;ICM
70;ICONIQ
71;Iran Khodro
72;Isuzu
73;Jianghuai
74;Jiangling
75;Jihai
76;JLR
77;Joylong
78;Karma Automotive
79;Karsan
80;King Long
81;Leapmotor
82;Lifan
83;Linktour
84;Lucid Motors
85;Mahindra & Mahindra
86;Marcopolo
87;Mazda
88;McLaren
89;Minan Auto
90;Morgan
91;NEVS
92;NEXTEV
93;NIO
94;Nissan
95;Paccar
96;Perodua
97;Piaggio
98;Porsche
99;Premier
100;Proton
101;PSA
102;Qingling
103;Qoros
104;Renault
105;Rivian
106;SAIC
107;SAIPA
108;Shaanxi Auto
109;Shandong Tangjun Ouling
110;Shandong Wuzheng
111;Shanxi Yuhang
112;Shaolin Bus
113;Shuanghuan
114;Shuguang
115;Sichuan Nanjun
116;Sichuan Yema
117;Sichuan Yinhe Machinery
118;Singulato Motors
119;Sinogold
120;Sitech
121;Sollers
122;Soueast
123;Ssangyong
124;Subaru
125;Suda
126;Sunlong Bus
127;Suzuki
128;Tata
129;Tesla
130;Toyota
131;TPEV
132;TUBITAK
133;TVR
134;VinFast
135;Volkswagen
136;Volvo
137;Volvo Trucks
138;Weichai Power
139;WM Motor
140;WZL Motors
141;Xpeng EV
142;Youngman
143;Yulon
144;Zhengzhou Yutong
145;Zhongtong Bus
146;Zhongxing
147;Zotye
148;Cummins
149;OEM_Placeholder_002
150;OEM_Placeholder_003
151;John Deere
152;Stellantis