﻿id;hfg;ppos;rfp;familydescription;familyfull;series;package;seriesDescription;packageDescription
1;X;SAB-TC389QP_PD-516_CU;SAK-TC389QP-160F300S;Aurix 2G;TC3;8;9;tbd;tbd
2;Y;SAB-TC497XP_292_CUP_COM;SAA-TC497XP-24HO400CC;Aurix 3G;TC4;9;7;tbd;tbd
3;Y;SAB-TC499XP_436_CUP_COM;SAA-TC499XP-24HO400CC;Aurix 3G;TC4;9;9;tbd;tbd
4;Y;SAB-TC4D7XP_292_CUP_COM;SAA-TC4D7XP-20MF500CC;Aurix 3G;TC4;D;7;tbd;tbd
5;Y;SAB-TC4D7XP_292_MOD_COM;SAA-TC4D7XP-20MF500MC;Aurix 3G;TC4;D;7;tbd;tbd
6;Y;SAB-TC4D9XP_436_CUP_COM;SAA-TC4D9XP-20MF500CC;Aurix 3G;TC4;D;9;tbd;tbd
7;Y;SAB-TC4D9XP_436_MOD_COM;SAA-TC4D9XP-20MF500MC;Aurix 3G;TC4;D;9;tbd;tbd
8;A;SAB-TC1387A-392F150EF_CU;SAK-TC1337A-136F150EF_CU;Aurix TriCore (?);TC1;3;3;tbd;tbd
9;A;SAB-TC1387A-392F150EF_CU;SAK-TC1367A-264F150EF_CU;Aurix TriCore (?);TC1;3;6;tbd;tbd
10;A;SAB-TC1387A-392F180EF_CU;SAK-TC1387A-392F180EF_CU;Aurix TriCore (?);TC1;3;8;tbd;tbd
11;A;SAB-TC1387ED-392FEB;SAK-TC1387ED-392FEB;Aurix TriCore (?);TC1;3;8;tbd;tbd
12;A;SAB-TC1724ED-192FH;SAK-TC1724ED-192FH;Aurix TriCore (?);TC1;7;2;tbd;tbd
13;A;SAB-TC1724-192FHR_CU;SAK-TC1724F-192FHR;Aurix TriCore (?);TC1;7;2;tbd;tbd
14;A;SAB-TC1724-192FF_CU;SAK-TC1724F-192F;Aurix TriCore (?);TC1;7;2;tbd;tbd
15;A;SAB-TC1724-192FF_CU;SAK-TC1724N-192F;Aurix TriCore (?);TC1;7;2;tbd;tbd
16;A;SAB-TC1724-192FHR_CU;SAK-TC1724N-192FHR;Aurix TriCore (?);TC1;7;2;tbd;tbd
17;A;SAB-TC1728ED-192FH;SAB-TC1728ED-192FH;Aurix TriCore (?);TC1;7;2;tbd;tbd
18;A;SAB-TC1728-192FF_CU;SAK-TC1728F-192F;Aurix TriCore (?);TC1;7;2;tbd;tbd
19;A;SAB-TC1728-192FF_CU;SAK-TC1728N-192F;Aurix TriCore (?);TC1;7;2;tbd;tbd
20;A;SAB-TC1736-128FHL;SAK-TC1736-128FHL;Aurix TriCore (?);TC1;7;3;tbd;tbd
21;A;SAB-TC1736ED-128FHL;SAB-TC1736ED-128FHL;Aurix TriCore (?);TC1;7;3;tbd;tbd
22;A;SAB-TC1767-256FHL;SAK-TC1738-256FHL;Aurix TriCore (?);TC1;7;3;tbd;tbd
23;A;SAB-TC1766-192FHL_AU;SAK TC1762-128F80HL_AU;Aurix TriCore (?);TC1;7;6;tbd;tbd
24;A;SAB-TC1766-192FHL;SAK TC1766-192F80HL;Aurix TriCore (?);TC1;7;6;tbd;tbd
25;A;SAB-TC1766-192FHL_AU;SAB-TC1766-192FHL_AU;Aurix TriCore (?);TC1;7;6;tbd;tbd
26;A;SAB-TC1766ED-192FHL;SAK-TC1766ED-192FHL;Aurix TriCore (?);TC1;7;6;tbd;tbd
27;A;SAB-TC1767-256FHL;SAK-TC1767-256FHLF;Aurix TriCore (?);TC1;7;6;tbd;tbd
28;A;SAB-TC1767-256FHR_CU;SAK-TC1767-256F133_CU;Aurix TriCore (?);TC1;7;6;tbd;tbd
29;A;SAB-TC1767-256FHX;SAK-TC1767-256FHX;Aurix TriCore (?);TC1;7;6;tbd;tbd
30;A;SAB-TC1767-256FHL;SAK-TC1767-256FHL;Aurix TriCore (?);TC1;7;6;tbd;tbd
31;A;SAB-TC1767-256FHR_CU;SAK-TC1767-256F80_CU;Aurix TriCore (?);TC1;7;6;tbd;tbd
32;A;SAB-TC1767ED-256FHL;SAK-TC1767ED-256FHL;Aurix TriCore (?);TC1;7;6;tbd;tbd
33;A;SAB-TC1782ED-320FHL;SAK-TC1782ED-320FHL;Aurix TriCore (?);TC1;7;8;tbd;tbd
34;A;SAB-TC1782-320FHL;SAK-TC1782-320FHL;Aurix TriCore (?);TC1;7;8;tbd;tbd
35;A;SAB-TC1782-320FF_CU;SAK-TC1782F-320F;Aurix TriCore (?);TC1;7;8;tbd;tbd
36;A;SAB-TC1782-320FHR_CU;SAK-TC1782F-320FHR;Aurix TriCore (?);TC1;7;8;tbd;tbd
37;A;SAB-TC1782-320FHL_M1947C;SAK-TC1782F-320FHL_Old step;Aurix TriCore (?);TC1;7;8;tbd;tbd
38;A;SAB-TC1782FHR_CA_CU;SAB-TC1782FHR_CA_CU;Aurix TriCore (?);TC1;7;8;tbd;tbd
39;A;SAB-TC1782-320FF_CU;SAK-TC1782N-256F;Aurix TriCore (?);TC1;7;8;tbd;tbd
40;A;SAB-TC1782-320FHR_CU;SAK-TC1782N-320FHR;Aurix TriCore (?);TC1;7;8;tbd;tbd
41;A;SAB-TC1782-320FF_CU;SAK-TC1782N-320F;Aurix TriCore (?);TC1;7;8;tbd;tbd
42;A;SAB-TC1784ED-320FEL;SAK-TC1784ED-320FHL;Aurix TriCore (?);TC1;7;8;tbd;tbd
43;A;SAB-TC1784-320FEL;SAK-TC1784F-320F180EL;Aurix TriCore (?);TC1;7;8;tbd;tbd
44;A;SAB-TC1784-320FEP_CU;SAK-TC1784F-320F180EDA;Aurix TriCore (?);TC1;7;8;tbd;tbd
45;A;SAB-TC1791ED-512FEL;SAK-TC1791ED-512FE;Aurix TriCore (?);TC1;7;9;tbd;tbd
46;A;SAB-TC1791-512FF_CU;SAK-TC1791F-512F240F;Aurix TriCore (?);TC1;7;9;tbd;tbd
47;A;SAB-TC1791-512FF_CU;SAK-TC1791S-384F200F;Aurix TriCore (?);TC1;7;9;tbd;tbd
48;A;SAB-TC1791-512FF_CU;SAK-TC1791S-512F240F;Aurix TriCore (?);TC1;7;9;tbd;tbd
49;A;SAB-TC1793ED-512FEB;SAK-TC1793ED-512FEB;Aurix TriCore (?);TC1;7;9;tbd;tbd
50;A;SAB-TC1793-512FF_CU;SAK-TC1793F-512F200F;Aurix TriCore (?);TC1;7;9;tbd;tbd
51;A;SAB-TC1793-512FEF_CU;SAB-TC1793-512F270EF;Aurix TriCore (?);TC1;7;9;tbd;tbd
52;A;SAB-TC1793-512FF_CU;SAK-TC1793F-512F270F;Aurix TriCore (?);TC1;7;9;tbd;tbd
53;A;SAB-TC1793-512FF_CU;SAK-TC1793S-512F270F;Aurix TriCore (?);TC1;7;9;tbd;tbd
54;A;SAB-TC1796-256FE [BE;SAK-TC1796-256FE [BE;Aurix TriCore (?);TC1;7;9;tbd;tbd
55;A;SAB-TC1796-256FE BE G;SAK-TC1796-256F150E BE;Aurix TriCore (?);TC1;7;9;tbd;tbd
56;A;SAB-TC1796-256FE X;SAK-TC1796-256F150EX BE;Aurix TriCore (?);TC1;7;9;tbd;tbd
57;A;SAB-TC1796-256FE XG;SAK-TC1796-256F150E XG;Aurix TriCore (?);TC1;7;9;tbd;tbd
58;A;SAB-TC1796-256FE X;SAK-TC1796-256F180EX BE;Aurix TriCore (?);TC1;7;9;tbd;tbd
59;A;SAB-TC1796ED-256FF;SAB-TC1796ED-256FF;Aurix TriCore (?);TC1;7;9;tbd;tbd
60;A;SAB-TC1797-512FE-G;SAK-TC1797-384FE-G;Aurix TriCore (?);TC1;7;9;tbd;tbd
61;A;SAB-TC1797-512FE-G_CU;SAK-TC1797-384FE-G_CU;Aurix TriCore (?);TC1;7;9;tbd;tbd
62;A;SAB-TC1797-512FE_CU;SAK-TC1797-512FE_CU;Aurix TriCore (?);TC1;7;9;tbd;tbd
63;A;SAB-TC1797-512FE-G_CU;SAK-TC1797-512FE-G_CU;Aurix TriCore (?);TC1;7;9;tbd;tbd
64;A;SAB-TC1797-512FE-XG_CU;SAK-TC1797-512FE-XG_CU;Aurix TriCore (?);TC1;7;9;tbd;tbd
65;A;SAB-TC1797-512FE-XG;SAK-TC1797-512FE-XG;Aurix TriCore (?);TC1;7;9;tbd;tbd
66;A;SAB-TC1797ED-512FE;SAK-TC1797ED-512FE;Aurix TriCore (?);TC1;7;9;tbd;tbd
67;A;SAB-TC1798ED-512FEL;SAK-TC1798ED-512FEL;Aurix TriCore (?);TC1;7;9;tbd;tbd
68;A;SAB-TC1798-512FEP_CU;SAB-TC1798-512FEP;Aurix TriCore (?);TC1;7;9;tbd;tbd
69;A;SAB-TC1798-512FEP_CU;SAK-TC1798-512FEPA;Aurix TriCore (?);TC1;7;9;tbd;tbd
70;M;SAB-TC222L (PD-80)_CU;SAK-TC212L-8F133F;Aurix 1G;TC2;1;2;tbd;tbd
71;M;SAB-TC222L_PD-80_Z_CU;SAK-TC212L-8F133F Z NON CAN FD;Aurix 1G;TC2;1;2;tbd;tbd
72;M;SAB-TC222L_PD-80_Z_CU;SAK-TC222L-XXF133N Z CAN FD;Aurix 1G;TC2;2;2;tbd;tbd
73;M;SAB-TC222L (PD-80)_CU;SAK-TC212S-8F133F;Aurix 1G;TC2;1;2;tbd;tbd
74;M;SAB-TC222L_PD-80_Z_CU;SAK-TC222S-XXF133F Z NON CAN FD;Aurix 1G;TC2;2;2;tbd;tbd
75;M;SAB-TC222L_PD-80_Z_CU;SAK-TC222S-XXF133N Z CAN FD;Aurix 1G;TC2;2;2;tbd;tbd
76;M;SAB-TC223L (PD-100)_CU;SAK-TC213L-8F133F;Aurix 1G;TC2;1;3;tbd;tbd
77;M;SAB-TC223L_PD-100_Z_CU;SAK-TC223L-XXF133F Z NON CAN FD;Aurix 1G;TC2;2;3;tbd;tbd
78;M;SAB-TC223L_PD-100_Z_CU;SAK-TC223L-XXF133N Z CAN FD;Aurix 1G;TC2;2;3;tbd;tbd
79;M;SAB-TC223L (PD-100)_CU;SAK-TC213S-8F133F;Aurix 1G;TC2;1;3;tbd;tbd
80;M;SAB-TC224L (PD-144)_CU;SAK-TC214L-8F133F;Aurix 1G;TC2;1;4;tbd;tbd
81;M;SAB-TC224L_PD-144_Z_CU;SAK-TC224L-XXF133N Z CAN FD;Aurix 1G;TC2;2;4;tbd;tbd
82;M;SAB-TC224L (PD-144)_CU;SAK-TC214S-8F133F;Aurix 1G;TC2;1;4;tbd;tbd
83;M;SAB-TC222L (PD-80)_CU;SAK-TC222L-12F133F;Aurix 1G;TC2;2;2;tbd;tbd
84;M;SAB-TC222L (PD-80)_CU;SAK-TC222L-16F133F;Aurix 1G;TC2;2;2;tbd;tbd
85;M;SAB-TC222L (PD-80)_CU;SAK-TC222S-12F133F;Aurix 1G;TC2;2;2;tbd;tbd
86;M;SAB-TC222L (PD-80)_CU;SAK-TC222S-16F133F;Aurix 1G;TC2;2;2;tbd;tbd
87;M;SAB-TC223L (PD-100)_CU;SAK-TC223L-12F133F;Aurix 1G;TC2;2;3;tbd;tbd
88;M;SAB-TC223L (PD-100)_CU;SAK-TC223L-16F133F;Aurix 1G;TC2;2;3;tbd;tbd
89;M;SAB-TC223L (PD-100)_CU;SAK-TC223S-12F133F;Aurix 1G;TC2;2;3;tbd;tbd
90;M;SAB-TC223L (PD-100)_CU;SAK-TC223S-16F133F;Aurix 1G;TC2;2;3;tbd;tbd
91;M;SAB-TC223L_PD-100_Z_CU;SAK-TC223S-16F133F Z NON CAN FD;Aurix 1G;TC2;2;3;tbd;tbd
92;M;SAB-TC224L (PD-144)_CU;SAK-TC224L-16F133F;Aurix 1G;TC2;2;4;tbd;tbd
93;M;SAB-TC224L_PD-144_Z_CU;SAK-TC224L-16F133F Z NON CAN FD;Aurix 1G;TC2;2;4;tbd;tbd
94;M;SAB-TC233L (PD-100)_CU;SAK-TC233L-32F200F;Aurix 1G;TC2;3;3;tbd;tbd
95;M;SAB-TC233L_PD-100_Z_CU;SAK-TC233L-XXF200F Z NON CAN FD;Aurix 1G;TC2;3;3;tbd;tbd
96;M;SAB-TC233L_PD-100_Z_CU;SAK-TC233L-XXF200N Z CAN FD;Aurix 1G;TC2;3;3;tbd;tbd
97;M;SAB-TC233L (PD-100)_CU;SAK-TC233LC-24F133F;Aurix 1G;TC2;3;3;tbd;tbd
98;M;SAB-TC233L (PD-100)_CU;SAK-TC233LP-16F200F;Aurix 1G;TC2;3;3;tbd;tbd
99;M;SAB-TC233L (PD-100)_CU;SAK-TC233LP-32F200F;Aurix 1G;TC2;3;3;tbd;tbd
100;M;SAB-TC233L_PD-100_Z_CU;SAK-TC233S-32F200N Z CAN FD;Aurix 1G;TC2;3;3;tbd;tbd
101;M;SAB-TC234L_PD-144_Z_CU;SAK-TC234L-XXF200F Z NON CAN FD;Aurix 1G;TC2;3;4;tbd;tbd
102;M;SAB-TC234L_PD-144_Z_CU;SAK-TC234L-XXF200N Z CAN FD;Aurix 1G;TC2;3;4;tbd;tbd
103;M;SAB-TC234L (PD-144)_CU;SAK-TC234L-32F200F;Aurix 1G;TC2;3;4;tbd;tbd
104;M;SAB-TC234LE (ED-144)_CU;SAK-TC234LA-32F200F;Aurix 1G;TC2;3;4;tbd;tbd
105;M;SAB-TC234LE (ED-144)_CU;SAK-TC234LF-32F200F;Aurix 1G;TC2;3;4;tbd;tbd
106;M;SAB-TC234L (PD-144)_CU;SAK-TC234LP-16F200F;Aurix 1G;TC2;3;4;tbd;tbd
107;M;SAB-TC234L (PD-144)_CU;SAK-TC234LP-32F200F;Aurix 1G;TC2;3;4;tbd;tbd
108;M;SAB-TC234LE (ED-144)_CU;SAK-TC234LX-32F200F;Aurix 1G;TC2;3;4;tbd;tbd
109;M;SAB-TC237L_PD-292_Z_CU;SAK-TC237LP-32F200N Z CAN FD;Aurix 1G;TC2;3;7;tbd;tbd
110;M;SAB-TC237L (PD-292)_CU;SAK-TC237L-32F200S;Aurix 1G;TC2;3;7;tbd;tbd
111;M;SAB-TC237L_PD-292_Z_CU;SAK-TC237L-32F200S Z NON CAN FD;Aurix 1G;TC2;3;7;tbd;tbd
112;M;SAB-TC237LE_ED-292_CU;SAK-TC237LF-32F200S;Aurix 1G;TC2;3;7;tbd;tbd
113;M;SAB-TC264D_PD-144_Z_CU;SAK-TC264D-40F200N Z CAN FD;Aurix 1G;TC2;6;4;tbd;tbd
114;M;SAB-TC264D (PD-144)_CU;SAK-TC264D-40F200W (PD-144);Aurix 1G;TC2;6;4;tbd;tbd
115;M;SAB-TC264D_PD-144_Z_CU;SAK-TC264D-40F200W Z NON CAN FD;Aurix 1G;TC2;6;4;tbd;tbd
116;M;SAB-TC264DA_ADAS-144_Z_CU;SAK-TC264DA-ADAS_Z CAN FD;Aurix 1G;TC2;6;4;tbd;tbd
117;M;SAB-TC264DA (ADAS-144)_CU;SAK-TC264DA-40F200W (ADAS-144);Aurix 1G;TC2;6;4;tbd;tbd
118;M;SAB-TC264DA_ADAS-144_Z_CU;SAK-TC264DA_ADAS_Z NON CAN;Aurix 1G;TC2;6;4;tbd;tbd
119;M;SAB-TC264DE (ED-144)_CU;SAK-TC264DE-40F200N_144_Z CAN FD;Aurix 1G;TC2;6;4;tbd;tbd
120;M;SAB-TC264DE (ED-172)_CU;SAK-TC264DE-40F200Q_ED-172_Z NON CAN FD;Aurix 1G;TC2;6;4;tbd;tbd
121;M;SAB-TC264DE (ED-144)_CU;SAK-TC264DE-40F200W (ED-144);Aurix 1G;TC2;6;4;tbd;tbd
122;M;SAB-TC265D_PD-176_Z_CU;SAK-TC265D-40F200N Z CAN FD;Aurix 1G;TC2;6;5;tbd;tbd
123;M;SAB-TC265D (PD-176)_CU;SAK-TC265D-40F200W (PD-176);Aurix 1G;TC2;6;5;tbd;tbd
124;M;SAB-TC265D_PD-176_Z_CU;SAK-TC265D-40F200W Z NON CAN FD;Aurix 1G;TC2;6;5;tbd;tbd
125;M;SAB-TC265DE (ED-176)_CU;SAK-TC265DE-40F200N Z CAN FD;Aurix 1G;TC2;6;5;tbd;tbd
126;M;SAB-TC265DE (ED-216)_CU;SAK-TC265DE-40F200Q_ED-216_Z NON CAN FD;Aurix 1G;TC2;6;5;tbd;tbd
127;M;SAB-TC265DE (ED-176)_CU;SAK-TC265DE-40F200W (ED-176);Aurix 1G;TC2;6;5;tbd;tbd
128;M;SAB-TC267D_PD-292_Z_CU;SAK-TC267D-40F200N Z CAN FD;Aurix 1G;TC2;6;7;tbd;tbd
129;M;SAB-TC267D (PD-292)_CU;SAB-TC267D-40F200S;Aurix 1G;TC2;6;7;tbd;tbd
130;M;SAB-TC267D_PD-292_Z_CU;SAK-TC267D-40F200S Z NON CAN FD;Aurix 1G;TC2;6;7;tbd;tbd
131;M;SAB-TC275T_PD-176_Z_CU;SAK-TC275T-64F200N Z CAN FD;Aurix 1G;TC2;7;5;tbd;tbd
132;M;SAB-TC275T_PD-176_C_CU;SAB-TC275T-64F200W C_PD-176;Aurix 1G;TC2;7;5;tbd;tbd
133;M;SAB-TC275T_PD-176_D_CU;SAB-TC275T-64F200W D_PD-176;Aurix 1G;TC2;7;5;tbd;tbd
134;M;SAB-TC275T_PD-176_Z_CU;SAK-TC275T-64F200W Z NON CAN FD;Aurix 1G;TC2;7;5;tbd;tbd
135;M;SAB-TC275TF_ED-176_CU;SAK-TC275TF-64F200N_ED-176_Z CAN FD;Aurix 1G;TC2;7;5;tbd;tbd
136;M;SAB-TC275TF_ED-216_CU;SAK-TC275TF-64F200X_ED-216;Aurix 1G;TC2;7;5;tbd;tbd
137;M;SAB-TC275TF_ED-216_CU;SAK-TC275TF-64F200Q_ED-216_Z NON CAN FD;Aurix 1G;TC2;7;5;tbd;tbd
138;M;SAB-TC275TF_ED-176_CU;SAK-TC275TF-64F200X_ED-176;Aurix 1G;TC2;7;5;tbd;tbd
139;M;SAB-TC277T_PD-292_C_CU;SAB-TC277T-64F200S C_PD-292;Aurix 1G;TC2;7;7;tbd;tbd
140;M;SAB-TC277T_PD-292_Z_CU;SAK-TC277T-64F200N Z CAN FD;Aurix 1G;TC2;7;7;tbd;tbd
141;M;SAB-TC277T_PD-292_D_CU;SAB-TC277T-64F200S D_PD-292;Aurix 1G;TC2;7;7;tbd;tbd
142;M;SAB-TC277T_PD-292_Z_CU;SAK-TC277T-64F200S Z NON CAN FD;Aurix 1G;TC2;7;7;tbd;tbd
143;M;SAB-TC277TF_ED-292_CU;SAK-TC277TF-64F200N Z CAN FD;Aurix 1G;TC2;7;7;tbd;tbd
144;M;SAB-TC277TF_ED-292_CU;SAK-TC277TF-64F200S_ED-292;Aurix 1G;TC2;7;7;tbd;tbd
145;M;SAB-TC277T_PD-292_B_CU;SAB-TC277T-64F200S BC (PD-292);Aurix 1G;TC2;7;7;tbd;tbd
146;M;SAB-TC297TP PD-292_CU;SAK-TC297TP-128F300S;Aurix 1G;TC2;9;7;tbd;tbd
147;M;SAB-TC297TP_PD-292_Z_CU;SAK-TC297TP-XXF300S Z NON CAN FD;Aurix 1G;TC2;9;7;tbd;tbd
148;M;SAB-TC297TP_PD-292_Z_CU;SAK-TC297TP-XXF300N Z CAN FD;Aurix 1G;TC2;9;7;tbd;tbd
149;M;SAB-TC297TP PD-292_CU;SAK-TC297TP-96F300S;Aurix 1G;TC2;9;7;tbd;tbd
150;M;SAB-TC297TA_ADAS-292_Z_CU;SAK-TC297TA_ADAS Z CAN FD;Aurix 1G;TC2;9;7;tbd;tbd
151;M;SAB-TC297TA (ADAS-292)_CU;SAK-TC297TA ADAS-292;Aurix 1G;TC2;9;7;tbd;tbd
152;M;SAB-TC297TA_ADAS-292_Z_CU;SAK-TC297TA_ADAS Z NON CAN FD;Aurix 1G;TC2;9;7;tbd;tbd
153;M;SAB-TC297TE (ED-292)_CU;SAK-TC297TF-128F300N Z CAN FD;Aurix 1G;TC2;9;7;tbd;tbd
154;M;SAB-TC297TE (ED-292)_CU;SAK-TC297TE-128F300S;Aurix 1G;TC2;9;7;tbd;tbd
155;M;SAB-TC297TX_TRUCK-292_Z_CU;SAK-TC297TT-128F300N Z CAN FD;Aurix 1G;TC2;9;7;tbd;tbd
156;M;SAB-TC297TX_TRUCK-292_Z_CU;SAK-TC297TT-128F300S NON CAN FD;Aurix 1G;TC2;9;7;tbd;tbd
157;M;SAB-TC297TX_TRUCK-292_Z_CU;SAK-TC297TX-128F300N TRUCK Z CAN FD;Aurix 1G;TC2;9;7;tbd;tbd
158;M;SAB-TC297TX TRUCK-292_CU;SAK-TC297TX-128F300S TRUCK;Aurix 1G;TC2;9;7;tbd;tbd
159;M;SAB-TC297TX_TRUCK-292_Z_CU;SAK-TC297TX-128F300S TRUCK NON CAN FD;Aurix 1G;TC2;9;7;tbd;tbd
160;M;SAB-TC298TE (ED-416)_CU;SAK-TC298TE-128F300L;Aurix 1G;TC2;9;8;tbd;tbd
161;M;SAB-TC298TE (ED-416)_CU;SAK-TC298TF-128F300N Z CAN FD;Aurix 1G;TC2;9;8;tbd;tbd
162;M;SAB-TC299T (PD-516)_CU;SAB-TC299T-128F300S;Aurix 1G;TC2;9;9;tbd;tbd
163;M;SAB-TC299T_PD-516_Z_CU;SAK-TC299T-XXF300S Z NON CAN FD;Aurix 1G;TC2;9;9;tbd;tbd
164;M;SAB-TC299T (PD-516)_CU;SAB-TC299TC-96F300S;Aurix 1G;TC2;9;9;tbd;tbd
165;M;SAB-TC299TX_TRUCK-516_Z_CU;SAK-TC299TX-128F300N Z CAN FD;Aurix 1G;TC2;9;9;tbd;tbd
166;M;SAB-TC299TE (ED-516)_CU;SAK-TC299TF-128F300S;Aurix 1G;TC2;9;9;tbd;tbd
167;M;SAB-TC299T_PD-516_Z_CU;SAK-TC299T-128F300N Z CAN FD;Aurix 1G;TC2;9;9;tbd;tbd
168;M;SAB-TC299TE (ED-516)_CU;SAK-TC299TX-128F300S;Aurix 1G;TC2;9;9;tbd;tbd
169;M;SAB-TC299TX_TRUCK-516_Z_CU;SAK-TC299TX-128F300S Z NON CAN FD;Aurix 1G;TC2;9;9;tbd;tbd
170;X;SAB-TC322LP_PD-80_CU;SAK-TC322LP-16F160F;Aurix 2G;TC3;2;2;tbd;tbd
171;X;SAB-TC323LP_PD-100_CU;SAK-TC323LP-16F160F;Aurix 2G;TC3;2;3;tbd;tbd
172;X;SAB-TC324LP_PD-144_CU;SAK-TC324LP-16F160F;Aurix 2G;TC3;2;4;tbd;tbd
173;X;SAB-TC327LP_PD-292_CU;SAK-TC327LP-16F160S;Aurix 2G;TC3;2;7;tbd;tbd
174;X;SAB-TC332LP_PD-80_CU;SAK-TC332LP-32F200F;Aurix 2G;TC3;3;2;tbd;tbd
175;X;SAB-TC333LP_PD-100_CU;SAK-TC333LP-32F200F;Aurix 2G;TC3;3;3;tbd;tbd
176;X;SAB-TC334LP_PD-144_CU;SAK-TC334LP-32F200F;Aurix 2G;TC3;3;4;tbd;tbd
177;X;SAB-TC336DA_ED-180_CU;SAK-TC336DA-32F200S;Aurix 2G;TC3;3;6;tbd;tbd
178;X;SAB-TC336LP_PD-180_CU;SAK-TC336LP-32F200S;Aurix 2G;TC3;3;6;tbd;tbd
179;X;SAB-TC337DA_ED-292_CU;SAK-TC337DA-32F200S;Aurix 2G;TC3;3;7;tbd;tbd
180;X;SAB-TC337DA_ED-292_CU;SAK-TC337DA-32F300S;Aurix 2G;TC3;3;7;tbd;tbd
181;X;SAB-TC337LP_PD-292_CU;SAK-TC337LP-32F200S;Aurix 2G;TC3;3;7;tbd;tbd
182;X;SAB-TC356TA_ADAS-180_CU;SAK-TC356TA-64F300S;Aurix 2G;TC3;5;6;tbd;tbd
183;X;SAB-TC357TA_ADAS-292_CU;SAK-TC357TA-64F300S;Aurix 2G;TC3;5;7;tbd;tbd
184;X;SAB-TC364DP_PD-144_0.4_CU;SAK-TC364DP-64F300F;Aurix 2G;TC3;6;4;tbd;tbd
185;X;SAB-TC364DP_PD-144_0.5_CU;SAK-TC364DP-64F300W;Aurix 2G;TC3;6;4;tbd;tbd
186;X;SAB-TC365DP_PD-176_CU;SAK-TC365DP-64F300W;Aurix 2G;TC3;6;5;tbd;tbd
187;X;SAB-TC366DP_PD-180_CU;SAK-TC366DP-64F300S;Aurix 2G;TC3;6;6;tbd;tbd
188;X;SAB-TC367DP_PD-292_CU;SAK-TC367DP-64F300S;Aurix 2G;TC3;6;7;tbd;tbd
189;X;SAB-TC367DP_PD-292_CU;SAK-TC367V0-64F300S;Aurix 2G;TC3;6;7;tbd;tbd
190;X;SAB-TC367DP_PD-292_CU;SAK-TC367VB-32F200S;Aurix 2G;TC3;6;7;tbd;tbd
191;X;SAB-TC374TE_ED-144_CU;SAK-TC374TE-96F300W_NO-PLAN;Aurix 2G;TC3;7;4;tbd;tbd
192;X;SAB-TC375TP_PD-176_CU;SAK-TC375DP-96F300W;Aurix 2G;TC3;7;5;tbd;tbd
193;X;SAB-TC375TP_PD-176_CU;SAK-TC375TP-96F300W;Aurix 2G;TC3;7;5;tbd;tbd
194;X;SAB-TC375TX_ED-176_CU;SAB-TC375TE-96F300W_NO-PLAN;Aurix 2G;TC3;7;5;tbd;tbd
195;X;SAB-TC377TP_PD-292_CU;SAK-TC377DP-96F300S;Aurix 2G;TC3;7;7;tbd;tbd
196;X;SAB-TC377TP_PD-292_CU;SAK-TC377TP-96F300S;Aurix 2G;TC3;7;7;tbd;tbd
197;X;SAB-TC377TX_ED-292_CU;SAK-TC377TX-96F300S;Aurix 2G;TC3;7;7;tbd;tbd
198;X;SAB-TC377TP_PD-292_CU;SAK-TC377VS-96F300S;Aurix 2G;TC3;7;7;tbd;tbd
199;X;SAB-TC387QP_PD-292_CU;SAK-TC387QP-160F300S;Aurix 2G;TC3;8;7;tbd;tbd
200;X;SAB-TC387QP_PD-292_CU;SAK-TC387QP-160F300S_AE;Aurix 2G;TC3;8;7;tbd;tbd
201;X;SAB-TC387QP_PD-292_CU;SAK-TC387TP-XXXF300S;Aurix 2G;TC3;8;7;tbd;tbd
202;X;SAB-TC387QP_PD-292_CU;SAK-TC387TP-XXXF300S_AE;Aurix 2G;TC3;8;7;tbd;tbd
203;X;SAB-TC389QP_PD-516_CU;SAK-TC389QP-160F300S_AE;Aurix 2G;TC3;8;9;tbd;tbd
204;X;SAB-TC397X_PDED-292_CU;SAK-TC397QA-160F300S;Aurix 2G;TC3;9;7;tbd;tbd
205;X;SAB-TC397X_PDED-292_CU;SAK-TC397QA-160F300S_BD;Aurix 2G;TC3;9;7;tbd;tbd
206;X;SAB-TC397X_PDED-292_CU;SAK-TC397QP-256F300S;Aurix 2G;TC3;9;7;tbd;tbd
207;X;SAB-TC397X_PDED-292_CU;SAK-TC397QP-256F300S_BD;Aurix 2G;TC3;9;7;tbd;tbd
208;X;SAB-TC397X_PDED-292_CU;SAK-TC397TT-256F300S;Aurix 2G;TC3;9;7;tbd;tbd
209;X;SAB-TC397X_PDED-292_CU;SAK-TC397XA-256F300S;Aurix 2G;TC3;9;7;tbd;tbd
210;X;SAB-TC397X_PDED-292_CU;SAK-TC397XA-256F300S_BD;Aurix 2G;TC3;9;7;tbd;tbd
211;X;SAB-TC397X_PDED-292_CU;SAK-TC397XP-256F300S;Aurix 2G;TC3;9;7;tbd;tbd
212;X;SAB-TC397X_PDED-292_CU;SAK-TC397XP-256F300S_BD;Aurix 2G;TC3;9;7;tbd;tbd
213;X;SAB-TC397X_PDED-292_CU;SAK-TC397XT-256F300S;Aurix 2G;TC3;9;7;tbd;tbd
214;X;SAB-TC397X_PDED-292_CU;SAK-TC397XX-256F300S;Aurix 2G;TC3;9;7;tbd;tbd
215;X;SAB-TC397X_PDED-292_CU;SAK-TC397XX-256F300S_BD;Aurix 2G;TC3;9;7;tbd;tbd
216;X;SAB-TC397X_PDED-292_CU;SAK-TC397XZ-256F300S;Aurix 2G;TC3;9;7;tbd;tbd
217;X;SAB-TC397X_PDED-292_CU;SAK-TC397XZ-256F300S_BD;Aurix 2G;TC3;9;7;tbd;tbd
218;X;SAB-TC399X_PDED-516_CU;SAK-TC399XP-256F300S;Aurix 2G;TC3;9;9;tbd;tbd
219;X;SAB-TC399X_PDED-516_CU;SAK-TC399XP-256F300S_BD;Aurix 2G;TC3;9;9;tbd;tbd
220;X;SAB-TC399X_PDED-516_CU;SAK-TC399XX-256F300S;Aurix 2G;TC3;9;9;tbd;tbd
221;X;SAB-TC399X_PDED-516_CU;SAK-TC399XX-256F300S_BD;Aurix 2G;TC3;9;9;tbd;tbd
222;X;SAB-TC3E7QX_EVO-292;SAK-TC3E7QF-192F300S;Aurix 2G;TC3;E;7;tbd;tbd
223;X;SAB-TC3E7QX_EVO-292;SAK-TC3E7QG-160F300S;Aurix 2G;TC3;E;7;tbd;tbd
224;X;SAB-TC3E7QX_EVO-292;SAK-TC3E7QX-192F300S;Aurix 2G;TC3;E;7;tbd;tbd
225;Y;SAB-TC436DP_224_MOD_STD;SAK-TC436DP-04EB400MS;Aurix 3G;TC4;3;6;tbd;tbd
226;Y;SAB-TC469QP_436_MOD_STD;SAK-TC469QP-12MF400MS;Aurix 3G;TC4;6;9;tbd;tbd
227;Y;SAB-TC497XP_292_CUP_STD;SAK-TC497XP-24HO400CS;Aurix 3G;TC4;9;7;tbd;tbd
228;Y;SAB-TC497XP_292_MOD_STD;SAK-TC497XP-24HF400MS;Aurix 3G;TC4;9;7;tbd;tbd
229;Y;SAB-TC499XP_436_CUP_STD;SAK-TC499XP-24HO400CS;Aurix 3G;TC4;9;9;tbd;tbd
230;Y;SAB-TC499XP_436_MOD_STD;SAK-TC499XP-24HF400MS;Aurix 3G;TC4;9;9;tbd;tbd
231;A;SAB-TC1746-FU;SAL-TC1746-160FUP;Aurix TriCore (?);TC1;7;4;tbd;tbd
232;A;SAB-TC1746-FU;SAL-TC1746-160FU;Aurix TriCore (?);TC1;7;4;tbd;tbd
233;A;SAB-TC1766-FU SURFTA;SAL-TC1766-192F80U BF;Aurix TriCore (?);TC1;7;6;tbd;tbd
234;M;SAB-TC222L_PD-80_Z_CU;SAL-TC212L-8F133F Z NON CAN FD;Aurix 1G;TC2;1;2;tbd;tbd
235;M;SAB-TC222L_PD-80_Z_CU;SAL-TC222L-XXF133N Z CAN FD;Aurix 1G;TC2;2;2;tbd;tbd
236;M;SAB-TC223L_PD-100_Z_CU;SAL-TC223L-XXF133N Z CAN FD;Aurix 1G;TC2;2;3;tbd;tbd
237;M;SAB-TC223L (PD-100)_CU;SAL-TC223L-16F133F;Aurix 1G;TC2;2;3;tbd;tbd
238;M;SAB-TC223L_PD-100_Z_CU;SAL-TC223S-16F133F Z NON CAN FD;Aurix 1G;TC2;2;3;tbd;tbd
239;M;SAB-TC224L_PD-144_Z_CU;SAL-TC224L-16F133F Z NON CAN FD;Aurix 1G;TC2;2;4;tbd;tbd
240;M;SAB-TC224L_PD-144_Z_CU;SAL-TC224L-16F133N Z CAN FD;Aurix 1G;TC2;2;4;tbd;tbd
241;M;SAB-TC233L (PD-100)_CU;SAL-TC233L-32F200F;Aurix 1G;TC2;3;3;tbd;tbd
242;M;SAB-TC233L_PD-100_Z_CU;SAL-TC233L-32F200F Z NON CAN FD;Aurix 1G;TC2;3;3;tbd;tbd
243;M;SAB-TC233L_PD-100_Z_CU;SAL-TC233LP-32F200N Z CAN FD;Aurix 1G;TC2;3;3;tbd;tbd
244;M;SAB-TC233L (PD-100)_CU;SAL-TC233LP-32F200F;Aurix 1G;TC2;3;3;tbd;tbd
245;M;SAB-TC234L (PD-144)_CU;SAL-TC234L-32F200F;Aurix 1G;TC2;3;4;tbd;tbd
246;M;SAB-TC234L (PD-144)_CU;SAL-TC234LP-16F200F;Aurix 1G;TC2;3;4;tbd;tbd
247;M;SAB-TC234L (PD-144)_CU;SAL-TC234LP-32F200F;Aurix 1G;TC2;3;4;tbd;tbd
248;M;SAB-TC234L_PD-144_Z_CU;SAL-TC234LP-32F200N Z CAN FD;Aurix 1G;TC2;3;4;tbd;tbd
249;M;SAB-TC237L (PD-292)_CU;SAL-TC237L-32F200S;Aurix 1G;TC2;3;7;tbd;tbd
250;M;SAB-TC237L_PD-292_Z_CU;SAL-TC237L-32F200S Z NON CAN FD;Aurix 1G;TC2;3;7;tbd;tbd
251;M;SAB-TC237L_PD-292_Z_CU;SAL-TC237LP-32F200N Z CAN FD;Aurix 1G;TC2;3;7;tbd;tbd
252;M;SAB-TC237L (PD-292)_CU;SAL-TC237LP-32F200S;Aurix 1G;TC2;3;7;tbd;tbd
253;M;SAB-TC260D_PD-BD_Z;SAL-TC260D-40F200N Z CAN FD;Aurix 1G;TC2;6;0;tbd;tbd
254;M;SAB-TC264D_PD-144_Z_CU;SAL-TC264D-40F200N Z CAN FD;Aurix 1G;TC2;6;4;tbd;tbd
255;M;SAB-TC265D_PD-176_Z_CU;SAL-TC265D-40F200N Z CAN FD;Aurix 1G;TC2;6;5;tbd;tbd
256;M;SAB-TC267D_PD-292_Z_CU;SAL-TC267D-40F200N Z CAN FD;Aurix 1G;TC2;6;7;tbd;tbd
257;M;SAB-TC270T (PD-BD);SAL-TC270T-64F200;Aurix 1G;TC2;7;0;tbd;tbd
258;M;SAB-TC270TF_ED-BD_Z;SAL-TC270TF-64F200N Z CAN FD;Aurix 1G;TC2;7;0;tbd;tbd
259;M;SAB-TC270TP_PD-BD_Z;SAL-TC270T-64F200 Z NON CAN FD;Aurix 1G;TC2;7;0;tbd;tbd
260;M;SAB-TC270TP_PD-BD_Z;SAL-TC270T-64F200N Z CAN FD;Aurix 1G;TC2;7;0;tbd;tbd
261;M;SAB-TC275T_PD-176_Z_CU;SAL-TC275T-64F200W Z NON CAN FD;Aurix 1G;TC2;7;5;tbd;tbd
262;M;SAB-TC275T_PD-176_Z_CU;SAL-TC275T-64F200N Z CAN FD;Aurix 1G;TC2;7;5;tbd;tbd
263;M;SAB-TC277T_PD-292_Z_CU;SAL-TC277T-64F200S Z NON CAN FD;Aurix 1G;TC2;7;7;tbd;tbd
264;M;SAB-TC277T_PD-292_Z_CU;SAL-TC277T-64F200N Z CAN FD;Aurix 1G;TC2;7;7;tbd;tbd
265;M;SAB-TC290T_PD-BD_Z;SAL-TC290T-XXF300 Z NON CAN FD;Aurix 1G;TC2;9;0;tbd;tbd
266;M;SAB-TC290T (PD-BD);SAL-TC290T-128F300;Aurix 1G;TC2;9;0;tbd;tbd
267;M;SAB-TC290T_PD-BD_Z;SAL-TC290T-128F300N Z CAN FD;Aurix 1G;TC2;9;0;tbd;tbd
268;M;SAB-TC298T (PD-416)_CU;SAL-TC298T-128F300L;Aurix 1G;TC2;9;8;tbd;tbd
269;M;SAB-TC298T_PD-416_Z_CU;SAL-TC298T-128F300N Z CAN FD;Aurix 1G;TC2;9;8;tbd;tbd
270;M;SAB-TC299T_PD-516_Z_CU;SAL-TC299T-128F300N Z CAN FD;Aurix 1G;TC2;9;9;tbd;tbd
271;X;SAB-TC322LP_PD-80_CU;SAL-TC322LP-16F160F;Aurix 2G;TC3;2;2;tbd;tbd
272;X;SAB-TC323LP_PD-100_CU;SAL-TC323LP-16F160F;Aurix 2G;TC3;2;3;tbd;tbd
273;X;SAB-TC324LP_PD-144_CU;SAL-TC324LP-16F160F;Aurix 2G;TC3;2;4;tbd;tbd
274;X;SAB-TC327LP_PD-292_CU;SAL-TC327LP-16F160S;Aurix 2G;TC3;2;7;tbd;tbd
275;X;SAB-TC332LP_PD-80_CU;SAL-TC332LP-32F200F;Aurix 2G;TC3;3;2;tbd;tbd
276;X;SAB-TC333LP_PD-100_CU;SAL-TC333LP-32F200F;Aurix 2G;TC3;3;3;tbd;tbd
277;X;SAB-TC334LP_PD-144_CU;SAL-TC334LP-32F200F;Aurix 2G;TC3;3;4;tbd;tbd
278;X;SAB-TC336LP_PD-180_CU;SAL-TC336LP-32F200S;Aurix 2G;TC3;3;6;tbd;tbd
279;X;SAB-TC337LP_PD-292_CU;SAL-TC337LP-32F200S;Aurix 2G;TC3;3;7;tbd;tbd
280;X;SAB-TC360DP_PD-BD;SAL-TC360DP-64F300;Aurix 2G;TC3;6;0;tbd;tbd
281;X;SAB-TC364DP_PD-144_0.4_CU;SAL-TC364DP-64F300F;Aurix 2G;TC3;6;4;tbd;tbd
282;X;SAB-TC364DP_PD-144_0.5_CU;SAL-TC364DP-64F300W;Aurix 2G;TC3;6;4;tbd;tbd
283;X;SAB-TC365DP_PD-176_CU;SAL-TC365DP-64F300W;Aurix 2G;TC3;6;5;tbd;tbd
284;X;SAB-TC366DP_PD-180_CU;SAL-TC366DP-64F300S;Aurix 2G;TC3;6;6;tbd;tbd
285;X;SAB-TC367DP_PD-292_CU;SAL-TC367DP-64F300S;Aurix 2G;TC3;6;7;tbd;tbd
286;X;SAB-TC370TE_ED-BD;SAL-TC370TE-96F300_NO-PLAN;Aurix 2G;TC3;7;0;tbd;tbd
287;X;SAB-TC370TP_PD-BD;SAL-TC370TP-96F300;Aurix 2G;TC3;7;0;tbd;tbd
288;X;SAB-TC375TP_PD-176_CU;SAL-TC375DP-96F300W;Aurix 2G;TC3;7;5;tbd;tbd
289;X;SAB-TC375TP_PD-176_CU;SAL-TC375TI-96F300W;Aurix 2G;TC3;7;5;tbd;tbd
290;X;SAB-TC375TP_PD-176_CU;SAL-TC375TP-96F300W;Aurix 2G;TC3;7;5;tbd;tbd
291;X;SAB-TC377TP_PD-292_CU;SAL-TC377DP-96F300S;Aurix 2G;TC3;7;7;tbd;tbd
292;X;SAB-TC377TX_ED-292_CU;SAL-TC377TX-96F300S;Aurix 2G;TC3;7;7;tbd;tbd
293;X;SAB-TC377TP_PD-292_CU;SAL-TC377TP-96F300S;Aurix 2G;TC3;7;7;tbd;tbd
294;X;SAB-TC380QP_PD-BD;SAL-TC380QP-160F300;Aurix 2G;TC3;8;0;tbd;tbd
295;X;SAB-TC387QP_PD-292_CU;SAL-TC387QP-160F300S;Aurix 2G;TC3;8;7;tbd;tbd
296;X;SAB-TC387QP_PD-292_CU;SAL-TC387QP-160F300S_AE;Aurix 2G;TC3;8;7;tbd;tbd
297;X;SAB-TC387QP_PD-292_CU;SAL-TC387TP-XXXF300S;Aurix 2G;TC3;8;7;tbd;tbd
298;X;SAB-TC387QP_PD-292_CU;SAL-TC387TP-XXXF300S_AE;Aurix 2G;TC3;8;7;tbd;tbd
299;X;SAB-TC389QP_PD-516_CU;SAL-TC389QP-160F300S;Aurix 2G;TC3;8;9;tbd;tbd
300;X;SAB-TC389QP_PD-516_CU;SAL-TC389QP-160F300S_AE;Aurix 2G;TC3;8;9;tbd;tbd
301;X;SAB-TC390XE_ED-BD;SAL-TC390XE-256F300;Aurix 2G;TC3;9;0;tbd;tbd
302;X;SAB-TC397X_PDED-292_CU;SAL-TC397QP-256F300S_BD;Aurix 2G;TC3;9;7;tbd;tbd
303;X;SAB-TC397X_PDED-292_CU;SAL-TC397XP-256F300S;Aurix 2G;TC3;9;7;tbd;tbd
304;X;SAB-TC397X_PDED-292_CU;SAL-TC397XP-256F300S_BD;Aurix 2G;TC3;9;7;tbd;tbd
305;X;SAB-TC397X_PDED-292_CU;SAL-TC397XX-256F300S_BD;Aurix 2G;TC3;9;7;tbd;tbd
306;X;SAB-TC397X_PDED-292_CU;SAL-TC397XZ-256F300S_BD;Aurix 2G;TC3;9;7;tbd;tbd
307;X;SAB-TC399X_PDED-516_CU;SAL-TC399XP-256F300S;Aurix 2G;TC3;9;9;tbd;tbd
308;X;SAB-TC399X_PDED-516_CU;SAL-TC399XP-256F300S_BD;Aurix 2G;TC3;9;9;tbd;tbd
309;X;SAB-TC399X_PDED-516_CU;SAL-TC399XX-256F300S;Aurix 2G;TC3;9;9;tbd;tbd
310;X;SAB-TC399X_PDED-516_CU;SAL-TC399XX-256F300S_BD;Aurix 2G;TC3;9;9;tbd;tbd
311;X;SAB-TC3E7QX_EVO-292;SAL-TC3E7QF-192F300S;Aurix 2G;TC3;E;7;tbd;tbd
312;X;SAB-TC3E7QX_EVO-292;SAL-TC3E7QG-160F300S;Aurix 2G;TC3;E;7;tbd;tbd
313;X;SAB-TC3E7QX_EVO-292;SAL-TC3E7QX-192F300S;Aurix 2G;TC3;E;7;tbd;tbd
314;A;SAB-TC1791-512FEP_CU;SAB-TC1791-512FEP;Aurix TriCore (?);TC1;7;9;tbd;tbd